%YAML 1.1
%TAG !u! tag:unity3d.com,2011:
--- !u!1045 &1
EditorBuildSettings:
  m_ObjectHideFlags: 0
  serializedVersion: 2
  m_Scenes:
  - enabled: 1
    path: Assets/Scenes/menu.unity
    guid: 0c7bc0aa692ef1949a7f9be94fcbfed1
  - enabled: 1
    path: Assets/Scenes/Nivel1.unity
    guid: a263e0d0ce8750342801f451841ac765
  - enabled: 1
    path: Assets/Scenes/victoria.unity
    guid: 7c219fc9279b8294aab5d005ac7adade
  - enabled: 1
    path: Assets/Scenes/derrota.unity
    guid: 0f66c988a064da343a443b20d4644ac0
  m_configObjects: {}
